[{
        "id": 1,
        "studentId": "SE-001",
        "name": "Poom",
        "surname": "Poomrapee",
        "gpa": 3.59,
        "image": "https://www.camt.cmu.ac.th/th/person/img/chartchai.jpg",
        "featured": false,
        "penAmount": 15,
        "description": "The great man ever!!!!",
        "email":"chartchai.d@cmu.ac.th",
        "dob":"08/08/2019",
        "password":"1234"
    },
    {
        "id": 2,
        "studentId": "SE-002",
        "name": "Arm",
        "surname": "Pongsatorn",
        "gpa": 2.15,
        "image": "https://www.camt.cmu.ac.th/th/person/img/prompong.jpg",
        "featured": true,
        "penAmount": 2,
        "description": "The man for the Kop",
        "email":"prompong.sugunnasil@cmu.ac.th",
        "dob":"08/08/2019",
        "password":"2222"
    },
    {
        "id": 3,
        "studentId": "SE-003",
        "name": "Ploy",
        "surname": "Jiratchaya",
        "gpa": 2.15,
        "image": "https://www.camt.cmu.ac.th/th/person/img/passakorn.jpg",
        "featured": true,
        "penAmount": 0,
        "description": "The most beloved one",
        "email":"passakorn.p@cmu.ac.th",
        "dob":"08/08/2019",
        "password":"1010"
    }
]